0,0	0,7511696
0,01	0,7409357
0,02	0,6371345
0,03	0,5187134
0,04	0,43070173
0,049999997	0,34970763
0,059999995	0,29590645
0,06999999	0,25204676
0,07999999	0,19064327
0,08999999	0,16432749
0,09999999	0,111695915
