0.0	21.425
0.01	12.225
0.02	6.775
0.03	3.9
0.04	2.55
0.049999997	1.975
0.059999995	1.025
0.06999999	0.7
0.07999999	0.5
0.08999999	0.275
0.09999999	0.175
0.109999985	0.125
0.11999998	0.025
0.12999998	0.025
0.13999999	0.0
0.14999999	0.0
0.16	0.0
0.17	0.0
0.18	0.0
0.19000001	0.0
